{
	"info": {
		"_postman_id": "623c9cbf-967d-4fed-995d-00e5641a23ad",
		"name": "InstaferightCodeChallenge",
		"description": "# Introduction\nThis Api Return All Shipment List\n\n# Overview\nWith This APi You Can Get Shipment List And Filter Data\n\n# Authentication\nThere is not authentication for this api\n\n# Error Codes\nerror codes return in http header with error code 422\n\n# Rate limit\nthere is no rate limit for this api",
		"schema": "https://schema.getpostman.com/json/collection/v2.1.0/collection.json",
		"_exporter_id": "11867545"
	},
	"item": [
		{
			"name": "Get Shipment List",
			"request": {
				"method": "POST",
				"header": [],
				"body": {
					"mode": "raw",
					"raw": "{\r\n    \"filter\": {\r\n        \"carrier\": [\r\n            {\r\n                \"email\": \"danial.romaguera@yahoo.com\",\r\n                \"name\": \"Christophe Rodriguez\"\r\n            },\r\n            {\r\n                \"email\": \"maida.corwin@gmail.com\",\r\n                \"name\": \"Onie Lowe\"\r\n            }\r\n        ],\r\n        \"company\": [\r\n            {\r\n                \"email\": \"beau44@heidenreich.info\",\r\n                \"name\": \"Sam Feil\"\r\n            },\r\n            {\r\n                \"email\": \"tressa.mayert@yahoo.com\",\r\n                \"name\": \"Ms. Pansy Tremblay\"\r\n            }\r\n        ],\r\n        \"stop\": [\r\n            {\r\n                \"postalcode\": \"16918\",\r\n                \"city\": \"Freyenstein\",\r\n                \"country\": \"DE\"\r\n            },\r\n            {\r\n                \"postalcode\": \"97318\",\r\n                \"city\": \"Kitzingen\",\r\n                \"country\": \"DE\"\r\n            }\r\n        ]\r\n    }\r\n}",
					"options": {
						"raw": {
							"language": "json"
						}
					}
				},
				"url": {
					"raw": "http://164.92.230.36/api/shipment/list",
					"protocol": "http",
					"host": [
						"164",
						"92",
						"230",
						"36"
					],
					"path": [
						"api",
						"shipment",
						"list"
					]
				}
			},
			"response": [
				{
					"name": "Get Shipment List",
					"originalRequest": {
						"method": "POST",
						"header": [],
						"body": {
							"mode": "raw",
							"raw": "{\r\n    \"filter\": {\r\n        \"carrier\": [\r\n            {\r\n                \"email\": \"danial.romaguera@yahoo.com\",\r\n                \"name\": \"Christophe Rodriguez\"\r\n            },\r\n            {\r\n                \"email\": \"maida.corwin@gmail.com\",\r\n                \"name\": \"Onie Lowe\"\r\n            }\r\n        ],\r\n        \"company\": [\r\n            {\r\n                \"email\": \"beau44@heidenreich.info\",\r\n                \"name\": \"Sam Feil\"\r\n            },\r\n            {\r\n                \"email\": \"tressa.mayert@yahoo.com\",\r\n                \"name\": \"Ms. Pansy Tremblay\"\r\n            }\r\n        ],\r\n        \"stop\": [\r\n            {\r\n                \"postalcode\": \"16918\",\r\n                \"city\": \"Freyenstein\",\r\n                \"country\": \"DE\"\r\n            },\r\n            {\r\n                \"postalcode\": \"97318\",\r\n                \"city\": \"Kitzingen\",\r\n                \"country\": \"DE\"\r\n            }\r\n        ]\r\n    }\r\n}",
							"options": {
								"raw": {
									"language": "json"
								}
							}
						},
						"url": {
							"raw": "http://164.92.230.36/api/shipment/list",
							"protocol": "http",
							"host": [
								"164",
								"92",
								"230",
								"36"
							],
							"path": [
								"api",
								"shipment",
								"list"
							]
						}
					},
					"status": "OK",
					"code": 200,
					"_postman_previewlanguage": "json",
					"header": [
						{
							"key": "Host",
							"value": "164.92.230.36"
						},
						{
							"key": "Date",
							"value": "Wed, 27 Jul 2022 19:34:36 GMT"
						},
						{
							"key": "Date",
							"value": "Wed, 27 Jul 2022 19:34:36 GMT"
						},
						{
							"key": "Connection",
							"value": "close"
						},
						{
							"key": "X-Powered-By",
							"value": "PHP/8.1.8"
						},
						{
							"key": "Content-Type",
							"value": "application/json;charset=UTF-8"
						},
						{
							"key": "Charset",
							"value": "utf-8"
						},
						{
							"key": "Cache-Control",
							"value": "no-cache, private"
						},
						{
							"key": "X-RateLimit-Limit",
							"value": "60"
						},
						{
							"key": "X-RateLimit-Remaining",
							"value": "59"
						},
						{
							"key": "Access-Control-Allow-Origin",
							"value": "*"
						}
					],
					"cookie": [],
					"body": "{\n    \"status\": true,\n    \"message\": \"success\",\n    \"data\": [\n        {\n            \"id\": 10958,\n            \"distance\": 507627,\n            \"time\": 5,\n            \"cost\": \"1.0614405$\",\n            \"company\": {\n                \"name\": \"Sam Feil\",\n                \"email\": \"beau44@heidenreich.info\"\n            },\n            \"carrier\": {\n                \"name\": \"Christophe Rodriguez\",\n                \"email\": \"danial.romaguera@yahoo.com\"\n            },\n            \"route\": [\n                {\n                    \"stop_id\": 729402,\n                    \"postalcode\": \"16918\",\n                    \"city\": \"Freyenstein\",\n                    \"country\": \"DE\"\n                },\n                {\n                    \"stop_id\": 96395,\n                    \"postalcode\": \"86916\",\n                    \"city\": \"Kaufering\",\n                    \"country\": \"DE\"\n                }\n            ]\n        },\n        {\n            \"id\": 10958,\n            \"distance\": 507627,\n            \"time\": 5,\n            \"cost\": \"1.0614405$\",\n            \"company\": {\n                \"name\": \"Sam Feil\",\n                \"email\": \"beau44@heidenreich.info\"\n            },\n            \"carrier\": {\n                \"name\": \"Christophe Rodriguez\",\n                \"email\": \"danial.romaguera@yahoo.com\"\n            },\n            \"route\": [\n                {\n                    \"stop_id\": 729402,\n                    \"postalcode\": \"16918\",\n                    \"city\": \"Freyenstein\",\n                    \"country\": \"DE\"\n                },\n                {\n                    \"stop_id\": 96395,\n                    \"postalcode\": \"86916\",\n                    \"city\": \"Kaufering\",\n                    \"country\": \"DE\"\n                }\n            ]\n        },\n        {\n            \"id\": 31782,\n            \"distance\": 510842,\n            \"time\": 5,\n            \"cost\": \"1.066263$\",\n            \"company\": {\n                \"name\": \"Ms. Pansy Tremblay\",\n                \"email\": \"tressa.mayert@yahoo.com\"\n            },\n            \"carrier\": {\n                \"name\": \"Christophe Rodriguez\",\n                \"email\": \"danial.romaguera@yahoo.com\"\n            },\n            \"route\": [\n                {\n                    \"stop_id\": 308561,\n                    \"postalcode\": \"97318\",\n                    \"city\": \"Kitzingen\",\n                    \"country\": \"DE\"\n                },\n                {\n                    \"stop_id\": 980346,\n                    \"postalcode\": \"54597\",\n                    \"city\": \"Ormont\",\n                    \"country\": \"DE\"\n                }\n            ]\n        },\n        {\n            \"id\": 31782,\n            \"distance\": 510842,\n            \"time\": 5,\n            \"cost\": \"1.066263$\",\n            \"company\": {\n                \"name\": \"Ms. Pansy Tremblay\",\n                \"email\": \"tressa.mayert@yahoo.com\"\n            },\n            \"carrier\": {\n                \"name\": \"Christophe Rodriguez\",\n                \"email\": \"danial.romaguera@yahoo.com\"\n            },\n            \"route\": [\n                {\n                    \"stop_id\": 308561,\n                    \"postalcode\": \"97318\",\n                    \"city\": \"Kitzingen\",\n                    \"country\": \"DE\"\n                },\n                {\n                    \"stop_id\": 980346,\n                    \"postalcode\": \"54597\",\n                    \"city\": \"Ormont\",\n                    \"country\": \"DE\"\n                }\n            ]\n        }\n    ]\n}"
				}
			]
		}
	]
}